Final Project
…
# Using lexicon affin
affinLex <- get_sentiments("afinn")
wh.affin <- tidy_data %>% 
  anti_join(stop_words) %>% 
  group_by(day) %>%
  inner_join(affinLex) %>% 
  summarise(sentiment = sum(value)) %>% 
  mutate(method="affin")

## Joining, by = "word"
## Joining, by = "word"

wh.affin

## # A tibble: 32 x 3
##      day sentiment method
##    <int>     <dbl> <chr> 
##  1     1       172 affin 
##  2     2        43 affin 
##  3     3       243 affin 
##  4     4       114 affin 
##  5     5       228 affin 
##  6     6       142 affin 
##  7     7       207 affin 
##  8     8       152 affin 
##  9     9       190 affin 
## 10    10       174 affin 
## #  with 22 more rows
…
## Joining, by = "word"
## Joining, by = "word"

wh.bing

## # A tibble: 32 x 5
## # Groups:   day [32]
##      day negative positive sentiment method
##    <int>    <dbl>    <dbl>     <dbl> <chr> 
##  1     1      125      187        62 bing  
##  2     2      178      141       -37 bing  
##  3     3      230      241        11 bing  
##  4     4      180      180         0 bing  
##  5     5      204      295        91 bing  
##  6     6      241      274        33 bing  
##  7     7      246      295        49 bing  
##  8     8      333      295       -38 bing  
##  9     9       97      143        46 bing  
## 10    10      168      220        52 bing  
## #  with 22 more rows
…
## Joining, by = "word"
## Joining, by = "word"

wh.nrc

## # A tibble: 32 x 5
## # Groups:   day [32]
##      day negative positive sentiment method
##    <int>    <dbl>    <dbl>     <dbl> <chr> 
##  1     1      145      496       351 nrc   
##  2     2      198      503       305 nrc   
##  3     3      251      710       459 nrc   
##  4     4      226      540       314 nrc   
##  5     5      256      691       435 nrc   
##  6     6      282      804       522 nrc   
##  7     7      318      838       520 nrc   
##  8     8      412      884       472 nrc   
##  9     9      108      341       233 nrc   
## 10    10      217      587       370 nrc   
## #  with 22 more rows
…
